INSERT INTO ANIMALS VALUES ('1','12-15 лет','4-7,5 кг','Абиссинская кошка','CAT','https://sun9-15.userapi.com/impg/5n6kps0z1D8lBHalxdkauBbtk85fiNQNr2NVWA/260BBl5lLvQ.jpg?size=1024x600&quality=96&sign=e750b61b36252b538dc79942aab789d2&type=album','1','1','1');
INSERT INTO ANIMALS VALUES ('2','12 – 15 лет, иногда – до 20 лет',' 4 – 8 кг','Американская короткошерстная кошка','CAT','https://sun9-43.userapi.com/impg/3i50gSkTTeYk1lpx6b0WfVJqafpZ_N-FA72CyQ/HvsJc3BV48Q.jpg?size=412x581&quality=96&sign=593fc8876d3b64ae9465b0da75838acf&type=album','2','2','2');
INSERT INTO ANIMALS VALUES ('3','15-20 лет','15-21 кг','Каракал','CAT','https://sun9-37.userapi.com/impg/_bad8nRJxLLjsOpuroS9D6DJDbiDOZDv3lqJSQ/ofzGaP12iOc.jpg?size=1280x720&quality=96&sign=714a24896e099a178637ec6d55577efd&type=album','5','5','5');
INSERT INTO ANIMALS VALUES ('4','10-12 лет','23 – 39 кг','Акита-ину','DOG','https://sun9-27.userapi.com/impg/bBAF8D_YXlDfup2mB9yhStlg3Be1qbC7WrP4wQ/RF3EHwSnJoI.jpg?size=1536x686&quality=96&sign=9f5ea593902f11c657760f95d43677c7&type=album','6','6','6');
INSERT INTO ANIMALS VALUES ('5','до 12 лет','2-4 кг','Бамбино','CAT','https://sun9-15.userapi.com/impg/h_iTs8N09yaPpD_hqL8HM6V3e7hvQdoRVB0czw/MHJeCFbDVsE.jpg?size=1024x600&quality=96&sign=22913c739c0b3e45dec3bdb6f861337f&type=album','3','3','3');
INSERT INTO ANIMALS VALUES ('6','12 – 15 лет','до 7 кг','Эльф','CAT','https://sun9-29.userapi.com/impg/68XD7aFVAfSb7GlI2dcr8Sj-2AAh7onqsass7g/87302G1Mbqw.jpg?size=1024x600&quality=96&sign=aa4b93ec5022c08ac0fc677b649aac59&type=album','4','4','4');
INSERT INTO ANIMALS VALUES ('7','13-16 лет','кобели 36-43 кг, суки 32-38 кг','Аляскинский маламут','DOG','https://sun9-17.userapi.com/impg/QIOuyuyJEPkFhbgIWR7ea12kqi5mgvkjKeOC7Q/GCcAyr9GWFo.jpg?size=1024x683&quality=96&sign=a4e7f224a659d7a6cb4dde75ac12e9ba&type=album','7','7','7');
INSERT INTO ANIMALS VALUES ('8','11-13 лет','кобели 20-25 кг, суки 15-20 кг','Афганская борзая','DOG','https://sun9-1.userapi.com/impg/q1ZpUoGeRS6uTOJNMu9ZMBocY1JY8EXnNY3_TQ/6gT1A3jS9ZY.jpg?size=2560x1703&quality=96&sign=cdc767863ea410e7307e67ac0c285009&type=album','8','8','8');
INSERT INTO ANIMALS VALUES ('9','12-15 лет','кобели 20-28 кг, суки 16-23 кг','Сибирский хаски','DOG','https://sun9-37.userapi.com/impg/4zr4oDfK_k9edQGi1Xtl3iAFkEHb3bHUL2RWvA/1nQkS-UqENU.jpg?size=1920x1200&quality=96&sign=5d41d909a62a892cf285bf604612c918&type=album','9','9','9');
INSERT INTO ANIMALS VALUES ('10','14-15 лет','25-30 кг','Кеесхонд','DOG','https://sun9-30.userapi.com/impg/jAYfZmaxFMWTfDohJrWc3jqWjItwH31YmSaPFw/mP-cp6HZgGw.jpg?size=1024x600&quality=96&sign=fa3f7291210b08f59d7fca2a9ad3a4f7&type=album','10','10','10');
INSERT INTO ANIMALS VALUES ('11','13 – 15 лет','3 – 9 кг','Американский бобтейл','CAT','https://sun9-9.userapi.com/impg/Ca2Th-2Ssy5r87vozSHcCgtM1LgkyCO4Et7V7g/Pl1V_9cLGCs.jpg?size=880x619&quality=96&sign=75afcdc74d9e974255cc7f613f6624a5&type=album','11','11','11');
INSERT INTO ANIMALS VALUES ('12','12-15 лет, иногда – до 21 года','4-9 кг','Бенгальская кошка','CAT','https://sun9-56.userapi.com/impg/dqVi5DEyS2Vsbxh3i2otdR0d4e3qv7QXWG4IOQ/uBoIA-b49dE.jpg?size=1024x683&quality=96&sign=1639d154a0731ef8164a1e28c2d45c80&type=album','12','12','12');
INSERT INTO ANIMALS VALUES ('13','14-16 лет',' от 4,5 до 8 кг','Бирманская кошка','CAT','https://sun9-67.userapi.com/impg/FKqK_4EAFnP9xq9NIwMCISDmDrqBoQ9DZWSnRw/eArRYyR6YDs.jpg?size=1140x685&quality=96&sign=e97d713f127a04ff8ec6b4822a16e23e&type=album','13','13','13');
INSERT INTO ANIMALS VALUES ('14','12-15 лет','3-5 кг','Бомбейская кошка','CAT','https://sun9-47.userapi.com/impg/y5tpi7gc4OhPoaa5o6zPvaxoJFinmqTVhlIxzQ/18mPTuUF8gg.jpg?size=1920x1080&quality=96&sign=f3f8404e7f7956a2da1ceecde6b00fb6&type=album','14','14','14');
INSERT INTO ANIMALS VALUES ('15','9 – 15 лет','4,5 – 8 кг','Британская короткошерстная кошка','CAT','https://sun9-65.userapi.com/impg/33NDOz0-9v3s2Waw0ofPcsUFbVQjMXD-v0s0yg/U0l2mGrM4YM.jpg?size=1024x600&quality=96&sign=b95359f4ef43fb3507041d291832bc7a&type=album','15','15','15');
INSERT INTO ANIMALS VALUES ('16','10-15 лет','5-9 кг','Бурманская кошка','CAT','https://sun9-38.userapi.com/impg/8ZYsIK4z-aESl_i34r92s9P4z3TJa6df0jEncw/y9plJxxhsAo.jpg?size=1024x682&quality=96&sign=7ccd3234cef2b90013b17437c7a7d85d&type=album','16','16','16');
INSERT INTO ANIMALS VALUES ('17','14 – 16 лет','4 – 6,5 кг','Гималайская кошка','CAT','https://sun9-16.userapi.com/impg/byX2xtCm3wpze4GujiijtJIlPYoDSS6hiT2kwQ/2J7KFmd-k6M.jpg?size=1024x600&quality=96&sign=655e70f49db0d7ffabebcc111f9f34d1&type=album','17','17','17');
INSERT INTO ANIMALS VALUES ('18','15 – 17 лет','4 – 8 кг','Европейская короткошерстная кошка','CAT','https://sun9-15.userapi.com/impg/F6JZkPrtfO5uF-qUY6Bw0F82Bxh7Hiu7a9zHgQ/XV3kAjX9szY.jpg?size=960x638&quality=96&sign=202f98166afd0090b6cb898a800d8582&type=album','18','18','18');
INSERT INTO ANIMALS VALUES ('19','13 – 15 лет','3 – 6 кг','Египетская мау','CAT','https://sun9-31.userapi.com/impg/r7tYpO9Alsl3L32Z8fFpo5NBI5S2Hoiqnw4oog/B5ScdSbLw0A.jpg?size=2560x1707&quality=96&sign=bcd5325050dd3a85de3c3a15140fa340&type=album','19','19','19');
INSERT INTO ANIMALS VALUES ('20','12 – 15 лет','до 7,5 кг','Курильский бобтейл','CAT','https://sun9-70.userapi.com/impg/Dou5tz4cP2YBEe7kWjD9UfzVAEzsDR87GlYluQ/N0FDt-Y-Wqk.jpg?size=937x624&quality=96&sign=7373d85d55dc882acbc14bd70f30db7c&type=album','20','20','20');
INSERT INTO ANIMALS VALUES ('21','13-16 лет','от 2,2 до 4 кг','Манчкин','CAT','https://sun9-40.userapi.com/impg/q_1606DDrvUw2uoyJPhHoX1pUjeCx9Bg0Azt6w/QMwLfg0c8Y4.jpg?size=1024x600&quality=96&sign=895a1778d13d994e2b9c40eb3ba79144&type=album','21','21','21');
INSERT INTO ANIMALS VALUES ('22','12-15 лет',' Вес взрослой особи мужского пола может достигать от 7 до 12 кг, кошки – от 4 до 7,5 кг.','Мейн-кун','CAT','https://sun9-5.userapi.com/impg/xlbqacwaDR3oQOva8i5v_KBnxwz9YtSKkn8qRQ/qOAY9v5huiU.jpg?size=1170x647&quality=96&sign=b6f8fc544a2dd7b383cf3404dafcbe05&type=album','22','22','22');
INSERT INTO ANIMALS VALUES ('23','14-20 лет','кошки 3-5,5 кг, коты 5-6 кг','Нибелунг','CAT','https://sun9-14.userapi.com/impg/POwVYPUhy5dETbMFbtirlkIARQ7sDBmbW1lJnw/e7iyypbmvEU.jpg?size=1024x683&quality=96&sign=10b429052ab96d4065559775010cbe94&type=album','23','23','23');
INSERT INTO ANIMALS VALUES ('24','15-20 лет','4-9 кг','Норвежская лесная кошка','CAT','https://sun9-73.userapi.com/impg/olp3aR-0qJmbBD0ks_b1fFEQQnI0fZJ641my3Q/T8LeZsLKKZM.jpg?size=800x567&quality=96&sign=fb536f51dea4841cd0f1065694b8e43b&type=album','24','24','24');
INSERT INTO ANIMALS VALUES ('25','17-20 лет','3,5-12 кг',' Сибирская кошка','CAT','https://sun9-63.userapi.com/impg/QBYY8Pf60FKr0yZmM8bmSGsriE9KOGOVU7JJNA/8Tbf8cvCMqs.jpg?size=1024x520&quality=96&sign=63f98560f87786c7e01e7f5056172b0e&type=album','25','25','25');
INSERT INTO ANIMALS VALUES ('26',' от 12 до 15 лет','Кобели: минимум 50 кг. Суки: минимум 40 кг.','Алабай (Среднеазиатская овчарка)','DOG','https://sun9-55.userapi.com/impg/zNfbk_DpNgfkIrsNqCsFYjqivaC_ChCLC71tAA/rsW_h-5_gAE.jpg?size=1024x600&quality=96&sign=32a613a35e52f9fe792a90115e3bf26b&type=album','26','26','26');
INSERT INTO ANIMALS VALUES ('27','13 – 14 лет','10 кг, мини – 7 кг, той – 4,3 кг','Аляскинский кли-кай','DOG','https://sun9-58.userapi.com/impg/gXuAC5_symK-seWC9_wBe2SgOC2HtbbfX4CQBQ/AaoRNW3BzCk.jpg?size=1280x925&quality=96&sign=a0fff0e0fc3d7929682318b7c55ced1d&type=album','27','27','27');
INSERT INTO ANIMALS VALUES ('28','8-12 лет','30-58 кг','Американский булли','DOG','https://sun9-25.userapi.com/impg/qanMYyb-IAi11QKw-Ug3_QL64L0vQ06LiIykeg/yqCyO28TJMM.jpg?size=1920x1080&quality=96&sign=e3335165a2169443caf56764897d7d20&type=album','28','28','28');
INSERT INTO ANIMALS VALUES ('29','13-14 лет','7-14 кг','Американский кокер-спаниель','DOG','https://sun9-72.userapi.com/impg/oxZVme8OGG4ZkPoaHusviwkFfpPm4niR4oXLrg/1cA6Xb8WxZY.jpg?size=1024x580&quality=96&sign=8eda6fa5f040d186f76b275d6d0609cb&type=album','29','29','29');
INSERT INTO ANIMALS VALUES ('30','7-10 лет','кобели 24-25 кг, суки 22-23 кг','Английский бульдог  ','DOG','https://sun9-46.userapi.com/impg/qBQIJIw4DzSdCRdm6pxcULMuFZ5RvjpAxWWFZg/oKCmP4tMHqU.jpg?size=1934x1295&quality=96&sign=b2c72ced4ec69b61dda7fb308fd8b404&type=album','30','30','30');
INSERT INTO ANIMALS VALUES ('31','9-11 лет','кобели около 72 кг, суки около 68 кг','Английский мастиф','DOG','https://sun9-21.userapi.com/impg/it6ukii9lC4EtyQsI9SkoVjbAdIgoMyEf8E-VQ/O9RcwqEGX6s.jpg?size=1100x721&quality=96&sign=35a10e3a10b8368323d86d90a9b03c30&type=album','31','31','31');
INSERT INTO ANIMALS VALUES ('32','до 12-14 лет','4-6 кг','Аффенпинчер','DOG','https://sun9-10.userapi.com/impg/NAkiXj_uVfV1H3IhehrK1pD2hvOihHu50cek4g/cMlBvAyYVpw.jpg?size=2048x1369&quality=96&sign=2d7143d30b30792fc0129c99276f8bbc&type=album','32','32','32');
INSERT INTO ANIMALS VALUES ('33','12-16 лет','кобели 11 кг, суки 9,5 кг','Басенджи','DOG','https://sun9-53.userapi.com/impg/LuhKmbeTh1H-znnpru6kCLaNTdeIAMEZ7GjOyw/V0xkpgsbEa8.jpg?size=1200x828&quality=96&sign=d813c3235b3ebad2722d0e5a95108126&type=album','33','33','33');
INSERT INTO ANIMALS VALUES ('34','13 – 15 лет',' кобели 30 – 40 кг, суки 25 – 35 кг','Белая швейцарская овчарка','DOG','https://sun9-53.userapi.com/impg/wdQHngL48KnskHZDt-I4AzRwkfUFNoyRV7zsAQ/U-P7DrqL9Vo.jpg?size=1024x683&quality=96&sign=d41d3a6bc0497815ccc122673dacf59a&type=album','34','34','34');
INSERT INTO ANIMALS VALUES ('35','12 – 16 лет','кобели 25-30 кг, суки 20-25 кг',' Бельгийская овчарка','DOG','https://sun9-57.userapi.com/impg/3TN554yTC09P8HLdvmW6KUECAIRj09FtwzoUqA/XESr2Mec04s.jpg?size=900x510&quality=96&sign=774e44876201f6997e396a23dacc2408&type=album','35','35','35');